…
For now, let’s get the Iowa data, only a few of the columns, and we will
create a column to note the type of aggregation (“none” for the
county-level data).

``` r
iowa_counties <-
  us_counties %>%
  filter(state == "Iowa") %>%
  select(date, county, cases, deaths) %>%
  mutate(aggregation = "none") %>%
  arrange(desc(date), desc(cases)) %>%
  print()
```

    ## # A tibble: 1,140 x 5
    ##    date       county     cases deaths aggregation
    ##    <date>     <chr>      <dbl>  <dbl> <chr>      
    ##  1 2020-04-09 Linn         215      9 none       
    ##  2 2020-04-09 Johnson      171      1 none       
    ##  3 2020-04-09 Polk         140      5 none       
    ##  4 2020-04-09 Scott         88      1 none       
    ##  5 2020-04-09 Muscatine     70      1 none       
    ##  6 2020-04-09 Washington    65      2 none       
    ##  7 2020-04-09 Tama          63      2 none       
    ##  8 2020-04-09 Louisa        41      0 none       
    ##  9 2020-04-09 Dallas        36      0 none       
    ## 10 2020-04-09 Dubuque       31      1 none       
    ## # … with 1,130 more rows
…
This plot is not all that informative, except to tell us that we have
the data we expect.

Let’s get just the data for the most-current data.

``` r
iowa_counties_current <- 
  iowa_counties %>%
  filter(date == max(date)) %>%
  arrange(desc(cases)) %>%
  print()
```

    ## # A tibble: 79 x 5
    ##    date       county     cases deaths aggregation
    ##    <date>     <chr>      <dbl>  <dbl> <chr>      
    ##  1 2020-04-09 Linn         215      9 none       
    ##  2 2020-04-09 Johnson      171      1 none       
    ##  3 2020-04-09 Polk         140      5 none       
    ##  4 2020-04-09 Scott         88      1 none       
    ##  5 2020-04-09 Muscatine     70      1 none       
    ##  6 2020-04-09 Washington    65      2 none       
    ##  7 2020-04-09 Tama          63      2 none       
    ##  8 2020-04-09 Louisa        41      0 none       
    ##  9 2020-04-09 Dallas        36      0 none       
    ## 10 2020-04-09 Dubuque       31      1 none       
    ## # … with 69 more rows
…
``` r
iowa_total <- 
  iowa_counties %>%
  group_by(date) %>%
  summarize(
    county = factor(NA_character_, levels = counties_large),
    cases = sum(cases),
    deaths = sum(deaths),
    aggregation = "total"
  ) %>%
  arrange(desc(date)) %>%
  print()
```

    ## # A tibble: 33 x 5
    ##    date       county cases deaths aggregation
    ##    <date>     <fct>  <dbl>  <dbl> <chr>      
    ##  1 2020-04-09 <NA>    1270     27 total      
    ##  2 2020-04-08 <NA>    1145     27 total      
    ##  3 2020-04-07 <NA>    1048     26 total      
    ##  4 2020-04-06 <NA>     946     25 total      
    ##  5 2020-04-05 <NA>     868     22 total      
    ##  6 2020-04-04 <NA>     786     11 total      
    ##  7 2020-04-03 <NA>     699     11 total      
    ##  8 2020-04-02 <NA>     614     11 total      
    ##  9 2020-04-01 <NA>     548      9 total      
    ## 10 2020-03-31 <NA>     498      7 total      
    ## # … with 23 more rows
…
iowa_remainder <- 
  iowa_counties %>%
  filter(!(county %in% counties_large)) %>%
  group_by(date) %>%
  summarize(
    county = factor(NA_character_, levels = counties_large),
    cases = sum(cases),
    deaths = sum(deaths),
    aggregation = "remainder"
  ) %>%
  arrange(desc(date)) %>%
  print()
```

    ## # A tibble: 32 x 5
    ##    date       county cases deaths aggregation
    ##    <date>     <fct>  <dbl>  <dbl> <chr>      
    ##  1 2020-04-09 <NA>     308      5 remainder  
    ##  2 2020-04-08 <NA>     290      5 remainder  
    ##  3 2020-04-07 <NA>     270      5 remainder  
    ##  4 2020-04-06 <NA>     251      4 remainder  
    ##  5 2020-04-05 <NA>     233      4 remainder  
    ##  6 2020-04-04 <NA>     218      2 remainder  
    ##  7 2020-04-03 <NA>     200      2 remainder  
    ##  8 2020-04-02 <NA>     175      2 remainder  
    ##  9 2020-04-01 <NA>     148      2 remainder  
    ## 10 2020-03-31 <NA>     132      2 remainder  
    ## # … with 22 more rows
…
    cumulative_poulation = cumsum(population),
    quartile_population = cumulative_poulation/max(cumulative_poulation),
    population_group = cut(
      quartile_population, 
      breaks = c(0, 0.25, 0.51, 0.78, 1),
      labels = c("small", "mid-small", "mid-large", "large")
      # labels = c("FT-AA", "PW-HN", "ST-DA", "PK-LN")
    ),
    population_group = fct_rev(population_group)
  ) %>%
  arrange(desc(cumulative_poulation)) %>%
  print()
```

    ## # A tibble: 99 x 6
    ##     fips county   population cumulative_poula… quartile_popula… population_group
    ##    <dbl> <chr>         <dbl>             <dbl>            <dbl> <fct>           
    ##  1 19153 Polk         490161           3155070            1     large           
    ##  2 19113 Linn         226706           2664909            0.845 large           
    ##  3 19163 Scott        172943           2438203            0.773 mid-large       
    ##  4 19103 Johnson      151140           2265260            0.718 mid-large       
    ##  5 19013 Black H…     131228           2114120            0.670 mid-large       
    ##  6 19193 Woodbury     103107           1982892            0.628 mid-large       
    ##  7 19061 Dubuque       97311           1879785            0.596 mid-large       
    ##  8 19169 Story         97117           1782474            0.565 mid-large       
    ##  9 19049 Dallas        93453           1685357            0.534 mid-large       
    ## 10 19155 Pottawa…      93206           1591904            0.505 mid-small       
    ## # … with 89 more rows
…
