…
    cumulative_poulation = cumsum(population),
    quartile_population = cumulative_poulation/max(cumulative_poulation),
    population_group = cut(
      quartile_population, 
      breaks = c(0, 0.25, 0.51, 0.78, 1),
      labels = c("small", "mid-small", "mid-large", "large")
      # labels = c("FT-AA", "PW-HN", "ST-DA", "PK-LN")
    ),
    population_group = fct_rev(population_group)
  ) %>%
  arrange(desc(cumulative_poulation)) %>%
  print()
```

    ## # A tibble: 99 x 6
    ##     fips county   population cumulative_poula… quartile_popula… population_group
    ##    <dbl> <chr>         <dbl>             <dbl>            <dbl> <fct>           
    ##  1 19153 Polk         490161           3155070            1     large           
    ##  2 19113 Linn         226706           2664909            0.845 large           
    ##  3 19163 Scott        172943           2438203            0.773 mid-large       
    ##  4 19103 Johnson      151140           2265260            0.718 mid-large       
    ##  5 19013 Black H…     131228           2114120            0.670 mid-large       
    ##  6 19193 Woodbury     103107           1982892            0.628 mid-large       
    ##  7 19061 Dubuque       97311           1879785            0.596 mid-large       
    ##  8 19169 Story         97117           1782474            0.565 mid-large       
    ##  9 19049 Dallas        93453           1685357            0.534 mid-large       
    ## 10 19155 Pottawa…      93206           1591904            0.505 mid-small       
    ## # … with 89 more rows
…
  group_by(county) %>%
  arrange(date) %>%
  mutate(
    new_cases = cases - lag(cases, default = 0),
    new_deaths = deaths - lag(deaths, default = 0),
    new_cases_week_avg = (cases - lag(cases, n = 7, default = 0)) / 7,
    new_deaths_week_avg = (deaths - lag(deaths, n = 7, default = 0)) / 7,
    aggregation = "none"
  ) %>%
  ungroup() %>%
  arrange(desc(date), desc(cases)) %>%
  print()
```

    ## # A tibble: 1,874 x 9
    ##    date       county cases deaths new_cases new_deaths new_cases_week_…
    ##    <date>     <chr>  <dbl>  <dbl>     <dbl>      <dbl>            <dbl>
    ##  1 2020-04-18 Linn     332     25        28          3            13.9 
    ##  2 2020-04-18 Polk     293     13        16          3            18.6 
    ##  3 2020-04-18 Johns…   265      3        19          0            10.1 
    ##  4 2020-04-18 Louisa   177      2         8          1            15.3 
    ##  5 2020-04-18 Musca…   176      3        13          1            12.1 
    ##  6 2020-04-18 Black…   166      1        28          0            17.9 
    ##  7 2020-04-18 Scott    159      3         4          0             6.86
    ##  8 2020-04-18 Tama     123      6         2          1             6.57
    ##  9 2020-04-18 Washi…   113      5         4          0             4.86
    ## 10 2020-04-18 Marsh…    83      0         8          0             7.86
    ## # … with 1,864 more rows, and 2 more variables: new_deaths_week_avg <dbl>,
    ## #   aggregation <chr>
…
