…
    ## Parsed with column specification:
    ## cols(
    ##   date = col_date(format = ""),
    ##   county = col_character(),
    ##   cases = col_double(),
    ##   deaths = col_double(),
    ##   new_cases = col_double(),
    ##   new_deaths = col_double(),
    ##   new_cases_week_avg = col_double(),
    ##   new_deaths_week_avg = col_double(),
    ##   aggregation = col_character()
    ## )

    ## # A tibble: 2,984 x 9
    ##    date       county cases deaths new_cases new_deaths new_cases_week_…
    ##    <date>     <chr>  <dbl>  <dbl>     <dbl>      <dbl>            <dbl>
    ##  1 2020-05-01 Black…  1195     13        55          0            95   
    ##  2 2020-05-01 Polk    1176     37       191          2            85.9 
    ##  3 2020-05-01 Woodb…   922      1       180          0           105.  
    ##  4 2020-05-01 Linn     673     45         4          2            23.1 
    ##  5 2020-05-01 Marsh…   500      2        33          0            32.7 
    ##  6 2020-05-01 Johns…   475      6        14          0             8.14
    ##  7 2020-05-01 Dallas   408      0        90          0            44.1 
    ##  8 2020-05-01 Musca…   346     16        10          2            10.9 
    ##  9 2020-05-01 Louisa   274      2         5          0             2   
    ## 10 2020-05-01 Tama     270      7         4          0             4.71
    ## # … with 2,974 more rows, and 2 more variables: new_deaths_week_avg <dbl>,
    ## #   aggregation <chr>
…
This plot is not all that informative, except to tell us that we have
the data we expect.

Let’s get just the data for the most-current data.

``` r
iowa_counties_current <- 
  iowa_counties %>%
  filter(date == max(date)) %>%
  arrange(desc(cases)) %>%
  print()
```

    ## # A tibble: 98 x 9
    ##    date       county cases deaths new_cases new_deaths new_cases_week_…
    ##    <date>     <chr>  <dbl>  <dbl>     <dbl>      <dbl>            <dbl>
    ##  1 2020-05-01 Black…  1195     13        55          0            95   
    ##  2 2020-05-01 Polk    1176     37       191          2            85.9 
    ##  3 2020-05-01 Woodb…   922      1       180          0           105.  
    ##  4 2020-05-01 Linn     673     45         4          2            23.1 
    ##  5 2020-05-01 Marsh…   500      2        33          0            32.7 
    ##  6 2020-05-01 Johns…   475      6        14          0             8.14
    ##  7 2020-05-01 Dallas   408      0        90          0            44.1 
    ##  8 2020-05-01 Musca…   346     16        10          2            10.9 
    ##  9 2020-05-01 Louisa   274      2         5          0             2   
    ## 10 2020-05-01 Tama     270      7         4          0             4.71
    ## # … with 88 more rows, and 2 more variables: new_deaths_week_avg <dbl>,
    ## #   aggregation <chr>
…
  summarize(
    county = factor(NA_character_, levels = counties_large),
    cases = sum(cases),
    deaths = sum(deaths),
    new_cases = sum(new_cases),
    new_deaths = sum(new_deaths),
    new_cases_week_avg = sum(new_cases_week_avg),
    new_deaths_week_avg = sum(new_deaths_week_avg),
    aggregation = "total"
  ) %>%
  arrange(desc(date)) %>%
  print()
```

    ## # A tibble: 55 x 9
    ##    date       county cases deaths new_cases new_deaths new_cases_week_…
    ##    <date>     <fct>  <dbl>  <dbl>     <dbl>      <dbl>            <dbl>
    ##  1 2020-05-01 <NA>    7812    170       698          8             480.
    ##  2 2020-04-30 <NA>    7121    162       298         14             455.
    ##  3 2020-04-29 <NA>    6823    148       460         12             437 
    ##  4 2020-04-28 <NA>    6363    136       502          9             389.
    ##  5 2020-04-27 <NA>    5861    127       371          9             384.
    ##  6 2020-04-26 <NA>    5491    118       382          6             368 
    ##  7 2020-04-25 <NA>    5109    112       650          6             371 
    ##  8 2020-04-24 <NA>    4459    106       520         10             304 
    ##  9 2020-04-23 <NA>    3939     96       175          8             257.
    ## 10 2020-04-22 <NA>    3764     88       126          7             253.
    ## # … with 45 more rows, and 2 more variables: new_deaths_week_avg <dbl>,
    ## #   aggregation <chr>
…
  summarize(
    county = factor(NA_character_, levels = counties_large),
    cases = sum(cases),
    deaths = sum(deaths),
    new_cases = sum(new_cases),
    new_deaths = sum(new_deaths),
    new_cases_week_avg = sum(new_cases_week_avg),
    new_deaths_week_avg = sum(new_deaths_week_avg),
    aggregation = "remainder"
  ) %>%
  arrange(desc(date)) %>%
  print()
```

    ## # A tibble: 54 x 9
    ##    date       county cases deaths new_cases new_deaths new_cases_week_…
    ##    <date>     <fct>  <dbl>  <dbl>     <dbl>      <dbl>            <dbl>
    ##  1 2020-05-01 <NA>     737     13        71          0             33.1
    ##  2 2020-04-30 <NA>     673     13        30          0             28.3
    ##  3 2020-04-29 <NA>     643     13        29          1             25.3
    ##  4 2020-04-28 <NA>     614     12        19          1             21.9
    ##  5 2020-04-27 <NA>     595     11        21          0             21.9
    ##  6 2020-04-26 <NA>     575     11        39          2             21.9
    ##  7 2020-04-25 <NA>     536      9        26          0             19.3
    ##  8 2020-04-24 <NA>     510      9        35          0             18.6
    ##  9 2020-04-23 <NA>     475      9         9          0             15.9
    ## 10 2020-04-22 <NA>     466      9         5          0             16.9
    ## # … with 44 more rows, and 2 more variables: new_deaths_week_avg <dbl>,
    ## #   aggregation <chr>
…
    ## Parsed with column specification:
    ## cols(
    ##   fips = col_double(),
    ##   county = col_character(),
    ##   population = col_double(),
    ##   cumulative_poulation = col_double(),
    ##   quartile_population = col_double(),
    ##   population_group = col_character()
    ## )

    ## # A tibble: 99 x 6
    ##     fips county   population cumulative_poula… quartile_popula… population_group
    ##    <dbl> <chr>         <dbl>             <dbl>            <dbl> <chr>           
    ##  1 19153 Polk         490161           3155070            1     large           
    ##  2 19113 Linn         226706           2664909            0.845 large           
    ##  3 19163 Scott        172943           2438203            0.773 mid-large       
    ##  4 19103 Johnson      151140           2265260            0.718 mid-large       
    ##  5 19013 Black H…     131228           2114120            0.670 mid-large       
    ##  6 19193 Woodbury     103107           1982892            0.628 mid-large       
    ##  7 19061 Dubuque       97311           1879785            0.596 mid-large       
    ##  8 19169 Story         97117           1782474            0.565 mid-large       
    ##  9 19049 Dallas        93453           1685357            0.534 mid-large       
    ## 10 19155 Pottawa…      93206           1591904            0.505 mid-small       
    ## # … with 89 more rows
…
